{
    "public": {
        "app": "mobile",
        "environment": "development",
        "kickofflabs" : {
            "campaignId" : "64659",
            "api_key":  "92eccf1600deb4fcdfb340ffd36c03f2514567c9"    
        },
        "analyticsSettings": {
            "Google Analytics" : {"trackingId": ""}
        },
        "hotjar": {
           "hjid": "0",
           "hjsv": "0"
         }    
    },
    "smtp":{
        "username": "hello@vyndica.com",
        "password": "He770!*.It5m3",
        "server": "smtp.zoho.com",
        "port": "587"    
    },
    "orion-cli": {
        "profile": "default",
        "config": "private/orion-config.json"
    },
    "CLOUDINARY": {
        "CLOUD_NAME": "vyndica",
        "API_KEY": "478233222112762",
        "API_SECRET": "Q6VpFDrYbTxuA4elUZMvxCQY0Js"
    },
    "MANDRILL": {
        "MANDRILL_API_USER": "eddiekollar",
        "MANDRILL_API_KEY": "oHmzVzEztHqo75KI1kkwZA"
    },
    "EASYPOST": {
        "API_KEY" : "Z7eW83KOLPTzjaZ0psbwKA"
    }
}
