{
  // Server authentication info
  "servers": [
    {
      "host": "104.236.131.124",
      "username": "root",
      "password": "mPdxq9T39DL~faTk",
      "sshOptions": {"port": "22"}
      // or pem file (ssh based authentication)
      //"pem": "~/.ssh/id_rsa"
    }
  ],

  // Install MongoDB in the server, does not destroy local MongoDB on future setup
  "setupMongo": false,

  // WARNING: Node.js is required! Only skip if you already have Node.js installed on server.
  "setupNode": true,

  // WARNING: If nodeVersion omitted will setup 0.10.36 by default. Do not use v, only version number.
  "nodeVersion": "0.10.40",

  // Install PhantomJS in the server
  "setupPhantom": true,

  // Show a progress bar during the upload of the bundle to the server. 
  // Might cause an error in some rare cases if set to true, for instance in Shippable CI
  "enableUploadProgressBar": true,

  // Application name (No spaces)
  "appName": "development",

  // Location of app (local directory)
  "app": "../../",

  // Configure environment
  "env": {
    "ROOT_URL": "http://dev.vyndica.com",
      "PORT": 3000,
      "UPSTART_UID" : "meteoruser",
      "METEOR_ENV": "development",
      "MONGO_URL": "mongodb://db_owner:bY9hCQlBVNlfWsv6@ds043605.mlab.com:43605/vyndica-dev"
  },

  // Meteor Up checks if the app comes online just after the deployment
  // before mup checks that, it will wait for no. of seconds configured below
  "deployCheckWaitTime": 15
}
