{
  // Server authentication info
  "servers": [
    {
      "host": "159.203.139.40",
      "username": "root",
      "password": "L#XAAbF5ajrp!q7-",
      "sshOptions": {"port": "22"}
      // or pem file (ssh based authentication)
      //"pem": "~/.ssh/id_rsa"
    }
  ],

  //"ssl": {
  //  "certificate": "./fullchain.pem", // this is a bundle of certificates as created by letsencrypt
  //  "key": "./privkey.pem", // this is the private key of the certificate as created by letsencrypt
  //  "port": 443 // 443 is the default value and it's the standard HTTPS port
    //"pem": "../ssl.pem"
    //"backendPort": 80
  //},

  // Install MongoDB in the server, does not destroy local MongoDB on future setup
  "setupMongo": false,

  // WARNING: Node.js is required! Only skip if you already have Node.js installed on server.
  "setupNode": true,

  // WARNING: If nodeVersion omitted will setup 0.10.36 by default. Do not use v, only version number.
  "nodeVersion": "0.10.40",

  // Install PhantomJS in the server
  "setupPhantom": true,

  // Show a progress bar during the upload of the bundle to the server. 
  // Might cause an error in some rare cases if set to true, for instance in Shippable CI
  "enableUploadProgressBar": true,

  // Application name (No spaces)
  "appName": "vyndica",

  // Location of app (local directory)
  "app": "../../",

  // Configure environment
  "env": {
    "ROOT_URL": "http://www.vyndica.com",
      "PORT": 3000,
      "UPSTART_UID" : "meteoruser",
      "METEOR_ENV": "production",
      "MONGO_URL": "mongodb://db_owner:n47Al998xBQTTg3G@ds049754.mlab.com:49754/vyndica"
  },

  // Meteor Up checks if the app comes online just after the deployment
  // before mup checks that, it will wait for no. of seconds configured below
  "deployCheckWaitTime": 60
}
