{
  "public": {
    "app": "web",
    "environment": "production",
    "kickofflabs" : {
        "campaignId" : "64659",
        "api_key":  "92eccf1600deb4fcdfb340ffd36c03f2514567c9"    
    },
    "analyticsSettings": {
        "Google Analytics" : {"trackingId": "UA-62395006-3"}
    },
    "hotjar": {
       "hjid": "108566",
       "hjsv": "5"
     }
  },
  "smtp":{
        "username": "hello@vyndica.com",
        "password": "He770!*.It5m3",
        "server": "smtp.zoho.com",
        "port": "587"    
  },
  "CLOUDINARY": {
        "CLOUD_NAME": "vyndica",
        "API_KEY": "478233222112762",
        "API_SECRET": "Q6VpFDrYbTxuA4elUZMvxCQY0Js"
    },
    "MANDRILL": {
        "MANDRILL_API_USER": "Vyndica",
        "MANDRILL_API_KEY": "K68qwFm91L44jxL9xMb51g"
    },
    "EASYPOST": {
        "API_KEY" : "nCedXeVyanSLnbd1M1Gz9Q"
    },
    "BRAINTREE": {
        "PUBLIC_KEY": "bq3h433jc7wrnb66",
        "PRIVATE_KEY": "a46002389deef75bcc15428ef7c0dc30",
        "MERCHANT_ID": "bbtj5x735mtmvvbm"
    }
}